{
	"info": {
		"_postman_id": "acd85826-aba6-485d-aff0-016b6fbe1a9a",
		"name": "SSOAPI",
		"schema": "https://schema.getpostman.com/json/collection/v2.1.0/collection.json"
	},
	"item": [
		{
			"name": "Login--get access_token",
			"request": {
				"auth": {
					"type": "noauth"
				},
				"method": "POST",
				"header": [],
				"body": {
					"mode": "urlencoded",
					"urlencoded": [
						{
							"key": "grant_type",
							"value": "password",
							"type": "text"
						},
						{
							"key": "username",
							"value": "superadmin",
							"type": "text"
						},
						{
							"key": "password",
							"value": "123456",
							"type": "text"
						},
						{
							"key": "client_secret",
							"value": "2747c06e-f02b-4686-84a1-4e4a77919515",
							"type": "text"
						},
						{
							"key": "client_id",
							"value": "sso",
							"type": "text"
						}
					]
				},
				"url": {
					"raw": "http://keycloak.fornewtech.com/auth/realms/ssotest/protocol/openid-connect/token",
					"protocol": "http",
					"host": [
						"keycloak",
						"fornewtech",
						"com"
					],
					"path": [
						"auth",
						"realms",
						"ssotest",
						"protocol",
						"openid-connect",
						"token"
					]
				}
			},
			"response": []
		},
		{
			"name": "Login--get x-token",
			"request": {
				"method": "POST",
				"header": [],
				"body": {
					"mode": "raw",
					"raw": "",
					"options": {
						"raw": {
							"language": "json"
						}
					}
				},
				"url": {
					"raw": "{{ApiHost}}/index/login",
					"host": [
						"{{ApiHost}}"
					],
					"path": [
						"index",
						"login"
					]
				}
			},
			"response": []
		},
		{
			"name": "Device--search",
			"protocolProfileBehavior": {
				"disableBodyPruning": true
			},
			"request": {
				"method": "GET",
				"header": [
					{
						"key": "x-token",
						"value": "{{x-token}}",
						"type": "text"
					},
					{
						"key": "x-deviceid",
						"value": "{{x-deviceid}}",
						"type": "text"
					},
					{
						"key": "Content-Type",
						"value": "application/json",
						"type": "text"
					}
				],
				"body": {
					"mode": "raw",
					"raw": "",
					"options": {
						"raw": {
							"language": "json"
						}
					}
				},
				"url": {
					"raw": "{{ApiHost}}/device?_page=1&_pageSize=10",
					"host": [
						"{{ApiHost}}"
					],
					"path": [
						"device"
					],
					"query": [
						{
							"key": "_keyword",
							"value": "a",
							"disabled": true
						},
						{
							"key": "_page",
							"value": "1"
						},
						{
							"key": "_pageSize",
							"value": "10"
						}
					]
				}
			},
			"response": []
		},
		{
			"name": "Device--create",
			"request": {
				"method": "POST",
				"header": [
					{
						"key": "x-token",
						"value": "{{x-token}}",
						"type": "text"
					},
					{
						"key": "x-deviceid",
						"value": "{{x-deviceid}}",
						"type": "text"
					},
					{
						"key": "Content-Type",
						"value": "application/json",
						"type": "text"
					}
				],
				"body": {
					"mode": "raw",
					"raw": "{\r\n  \"deviceHardwareId\": \"a2\",\r\n  \"name\": \"a2\",\r\n  \"assetRegister\": \"a2\",\r\n  \"mdmRegistrationDate\": \"2021-12-07\",\r\n  \"startDate\": \"2021-12-11\",\r\n  \"endDate\": \"2022-12-07\"\r\n}",
					"options": {
						"raw": {
							"language": "json"
						}
					}
				},
				"url": {
					"raw": "{{ApiHost}}/device",
					"host": [
						"{{ApiHost}}"
					],
					"path": [
						"device"
					]
				}
			},
			"response": []
		},
		{
			"name": "Device--update",
			"request": {
				"method": "PUT",
				"header": [
					{
						"key": "x-token",
						"value": "{{x-token}}",
						"type": "text"
					},
					{
						"key": "x-deviceid",
						"value": "{{x-deviceid}}",
						"type": "text"
					},
					{
						"key": "Content-Type",
						"value": "application/json",
						"type": "text"
					}
				],
				"body": {
					"mode": "raw",
					"raw": "{\r\n  \"deviceHardwareId\": \"a1\",\r\n  \"name\": \"ax2e\",\r\n  \"assetRegister\": \"a1\",\r\n  \"mdmRegistrationDate\": \"2021-12-07\",\r\n  \"startDate\": \"2021-12-08\",\r\n  \"endDate\": \"2022-12-07\"\r\n}",
					"options": {
						"raw": {
							"language": "json"
						}
					}
				},
				"url": {
					"raw": "{{ApiHost}}/device/dd1c27cbc97fbbe3266799a06c9dc5e7",
					"host": [
						"{{ApiHost}}"
					],
					"path": [
						"device",
						"dd1c27cbc97fbbe3266799a06c9dc5e7"
					]
				}
			},
			"response": []
		},
		{
			"name": "Device--deactivate",
			"request": {
				"method": "DELETE",
				"header": [
					{
						"key": "x-token",
						"value": "{{x-token}}",
						"type": "text"
					},
					{
						"key": "x-deviceid",
						"value": "{{x-deviceid}}",
						"type": "text"
					},
					{
						"key": "Content-Type",
						"value": "application/json",
						"type": "text"
					}
				],
				"body": {
					"mode": "raw",
					"raw": "",
					"options": {
						"raw": {
							"language": "json"
						}
					}
				},
				"url": {
					"raw": "{{ApiHost}}/device/dd1c27cbc97fbbe3266799a06c9dc5e7",
					"host": [
						"{{ApiHost}}"
					],
					"path": [
						"device",
						"dd1c27cbc97fbbe3266799a06c9dc5e7"
					]
				}
			},
			"response": []
		},
		{
			"name": "Device--detail",
			"protocolProfileBehavior": {
				"disableBodyPruning": true
			},
			"request": {
				"method": "GET",
				"header": [
					{
						"key": "x-token",
						"value": "{{x-token}}",
						"type": "text"
					},
					{
						"key": "x-deviceid",
						"value": "{{x-deviceid}}",
						"type": "text"
					},
					{
						"key": "Content-Type",
						"value": "application/json",
						"type": "text"
					}
				],
				"body": {
					"mode": "raw",
					"raw": "",
					"options": {
						"raw": {
							"language": "json"
						}
					}
				},
				"url": {
					"raw": "{{ApiHost}}/device/dd1c27cbc97fbbe3266799a06c9dc5e7",
					"host": [
						"{{ApiHost}}"
					],
					"path": [
						"device",
						"dd1c27cbc97fbbe3266799a06c9dc5e7"
					]
				}
			},
			"response": []
		},
		{
			"name": "Device--approvalSearch",
			"protocolProfileBehavior": {
				"disableBodyPruning": true
			},
			"request": {
				"method": "GET",
				"header": [
					{
						"key": "x-token",
						"value": "{{x-token}}",
						"type": "text"
					},
					{
						"key": "x-deviceid",
						"value": "{{x-deviceid}}",
						"type": "text"
					},
					{
						"warning": "This is a duplicate header and will be overridden by the Content-Type header generated by Postman.",
						"key": "Content-Type",
						"value": "application/json",
						"type": "text"
					}
				],
				"body": {
					"mode": "urlencoded",
					"urlencoded": []
				},
				"url": {
					"raw": "{{ApiHost}}/device/approval/index?_keyword=a&_page=1&_pagesize=10",
					"host": [
						"{{ApiHost}}"
					],
					"path": [
						"device",
						"approval",
						"index"
					],
					"query": [
						{
							"key": "_keyword",
							"value": "a"
						},
						{
							"key": "_page",
							"value": "1"
						},
						{
							"key": "_pagesize",
							"value": "10"
						}
					]
				}
			},
			"response": []
		},
		{
			"name": "Device--approvalPass",
			"request": {
				"method": "POST",
				"header": [
					{
						"key": "x-token",
						"value": "{{x-token}}",
						"type": "text"
					},
					{
						"key": "x-deviceid",
						"value": "{{x-deviceid}}",
						"type": "text"
					},
					{
						"key": "Content-Type",
						"value": "application/json",
						"type": "text"
					}
				],
				"body": {
					"mode": "raw",
					"raw": "",
					"options": {
						"raw": {
							"language": "json"
						}
					}
				},
				"url": {
					"raw": "{{ApiHost}}/device/approval/pass/db1680050a076e257d7a1e52651e0969",
					"host": [
						"{{ApiHost}}"
					],
					"path": [
						"device",
						"approval",
						"pass",
						"db1680050a076e257d7a1e52651e0969"
					]
				}
			},
			"response": []
		},
		{
			"name": "Device--approvalReject",
			"request": {
				"method": "POST",
				"header": [
					{
						"key": "x-token",
						"value": "{{x-token}}",
						"type": "text"
					},
					{
						"key": "x-deviceid",
						"value": "{{x-deviceid}}",
						"type": "text"
					},
					{
						"key": "Content-Type",
						"value": "application/json",
						"type": "text"
					}
				],
				"body": {
					"mode": "raw",
					"raw": "{\r\n  \"deviceHardwareId\": \"a1\",\r\n  \"name\": \"a1\",\r\n  \"assetRegister\": \"a1\",\r\n  \"mdmRegistrationDate\": \"2021-12-07\",\r\n  \"startDate\": \"2021-12-08\",\r\n  \"endDate\": \"2022-12-07\"\r\n}",
					"options": {
						"raw": {
							"language": "json"
						}
					}
				},
				"url": {
					"raw": "{{ApiHost}}/device/approval/reject/dd1c27cbc97fbbe3266799a06c9dc5e7",
					"host": [
						"{{ApiHost}}"
					],
					"path": [
						"device",
						"approval",
						"reject",
						"dd1c27cbc97fbbe3266799a06c9dc5e7"
					]
				}
			},
			"response": []
		},
		{
			"name": "IP--search",
			"protocolProfileBehavior": {
				"disableBodyPruning": true
			},
			"request": {
				"method": "GET",
				"header": [
					{
						"key": "x-token",
						"value": "{{x-token}}",
						"type": "text"
					},
					{
						"key": "x-deviceid",
						"value": "{{x-deviceid}}",
						"type": "text"
					},
					{
						"key": "Content-Type",
						"value": "application/json",
						"type": "text"
					}
				],
				"body": {
					"mode": "raw",
					"raw": "",
					"options": {
						"raw": {
							"language": "json"
						}
					}
				},
				"url": {
					"raw": "{{ApiHost}}/ip?_page=1&_pageSize=10",
					"host": [
						"{{ApiHost}}"
					],
					"path": [
						"ip"
					],
					"query": [
						{
							"key": "_keyword",
							"value": "a",
							"disabled": true
						},
						{
							"key": "_page",
							"value": "1"
						},
						{
							"key": "_pageSize",
							"value": "10"
						}
					]
				}
			},
			"response": []
		},
		{
			"name": "IP--create",
			"request": {
				"auth": {
					"type": "noauth"
				},
				"method": "POST",
				"header": [
					{
						"key": "x-token",
						"value": "{{x-token}}",
						"type": "text"
					},
					{
						"key": "x-deviceid",
						"value": "{{x-deviceid}}",
						"type": "text"
					},
					{
						"key": "Content-Type",
						"value": "application/json",
						"type": "text"
					}
				],
				"body": {
					"mode": "raw",
					"raw": "{\r\n    \"name\":\"ip21\",\r\n    \"ipAddress\":\"ip21\",\r\n    \"startDate\":\"2021-12-11\",\r\n    \"endDate\":\"2022-11-15\"\r\n}",
					"options": {
						"raw": {
							"language": "json"
						}
					}
				},
				"url": {
					"raw": "{{ApiHost}}/ip",
					"host": [
						"{{ApiHost}}"
					],
					"path": [
						"ip"
					]
				}
			},
			"response": []
		},
		{
			"name": "IP--update",
			"request": {
				"method": "PUT",
				"header": [
					{
						"key": "x-token",
						"value": "{{x-token}}",
						"type": "text"
					},
					{
						"key": "x-deviceid",
						"value": "{{x-deviceid}}",
						"type": "text"
					},
					{
						"key": "Content-Type",
						"value": "application/json",
						"type": "text"
					}
				],
				"body": {
					"mode": "raw",
					"raw": "{\r\n    \"name\":\"ip2\",\r\n    \"ipAddress\":\"ip3\",\r\n    \"endDate\":\"2022-11-16\"\r\n}",
					"options": {
						"raw": {
							"language": "json"
						}
					}
				},
				"url": {
					"raw": "{{ApiHost}}/ip/a830db4c9804eb56e48701532ecb81c1",
					"host": [
						"{{ApiHost}}"
					],
					"path": [
						"ip",
						"a830db4c9804eb56e48701532ecb81c1"
					]
				}
			},
			"response": []
		},
		{
			"name": "IP--deactivate",
			"request": {
				"method": "DELETE",
				"header": [
					{
						"key": "x-token",
						"value": "{{x-token}}",
						"type": "text"
					},
					{
						"key": "x-deviceid",
						"value": "{{x-deviceid}}",
						"type": "text"
					},
					{
						"key": "Content-Type",
						"value": "application/json",
						"type": "text"
					}
				],
				"body": {
					"mode": "raw",
					"raw": "",
					"options": {
						"raw": {
							"language": "json"
						}
					}
				},
				"url": {
					"raw": "{{ApiHost}}/ip/a830db4c9804eb56e48701532ecb81c1",
					"host": [
						"{{ApiHost}}"
					],
					"path": [
						"ip",
						"a830db4c9804eb56e48701532ecb81c1"
					]
				}
			},
			"response": []
		},
		{
			"name": "IP--detail",
			"protocolProfileBehavior": {
				"disableBodyPruning": true
			},
			"request": {
				"method": "GET",
				"header": [
					{
						"key": "x-token",
						"value": "{{x-token}}",
						"type": "text"
					},
					{
						"key": "x-deviceid",
						"value": "{{x-deviceid}}",
						"type": "text"
					},
					{
						"key": "Content-Type",
						"value": "application/json",
						"type": "text"
					}
				],
				"body": {
					"mode": "raw",
					"raw": "",
					"options": {
						"raw": {
							"language": "json"
						}
					}
				},
				"url": {
					"raw": "{{ApiHost}}/ip/a830db4c9804eb56e48701532ecb81c1",
					"host": [
						"{{ApiHost}}"
					],
					"path": [
						"ip",
						"a830db4c9804eb56e48701532ecb81c1"
					]
				}
			},
			"response": []
		},
		{
			"name": "IP--approvalSearch",
			"protocolProfileBehavior": {
				"disableBodyPruning": true
			},
			"request": {
				"method": "GET",
				"header": [
					{
						"key": "x-token",
						"value": "{{x-token}}",
						"type": "text"
					},
					{
						"key": "x-deviceid",
						"value": "{{x-deviceid}}",
						"type": "text"
					},
					{
						"warning": "This is a duplicate header and will be overridden by the Content-Type header generated by Postman.",
						"key": "Content-Type",
						"value": "application/json",
						"type": "text"
					}
				],
				"body": {
					"mode": "urlencoded",
					"urlencoded": []
				},
				"url": {
					"raw": "{{ApiHost}}/ip/approval/index?_page=1&_pagesize=10",
					"host": [
						"{{ApiHost}}"
					],
					"path": [
						"ip",
						"approval",
						"index"
					],
					"query": [
						{
							"key": "_keyword",
							"value": null,
							"disabled": true
						},
						{
							"key": "_page",
							"value": "1"
						},
						{
							"key": "_pagesize",
							"value": "10"
						}
					]
				}
			},
			"response": []
		},
		{
			"name": "IP--approvalPass",
			"request": {
				"method": "POST",
				"header": [
					{
						"key": "x-token",
						"value": "{{x-token}}",
						"type": "text"
					},
					{
						"key": "x-deviceid",
						"value": "{{x-deviceid}}",
						"type": "text"
					},
					{
						"key": "Content-Type",
						"value": "application/json",
						"type": "text"
					}
				],
				"body": {
					"mode": "raw",
					"raw": "",
					"options": {
						"raw": {
							"language": "json"
						}
					}
				},
				"url": {
					"raw": "{{ApiHost}}/ip/approval/pass/61391f2f4388115df0e1eecfa17ac43c",
					"host": [
						"{{ApiHost}}"
					],
					"path": [
						"ip",
						"approval",
						"pass",
						"61391f2f4388115df0e1eecfa17ac43c"
					]
				}
			},
			"response": []
		},
		{
			"name": "IP--approvalReject",
			"request": {
				"method": "POST",
				"header": [
					{
						"key": "x-token",
						"value": "{{x-token}}",
						"type": "text"
					},
					{
						"key": "x-deviceid",
						"value": "{{x-deviceid}}",
						"type": "text"
					},
					{
						"key": "Content-Type",
						"value": "application/json",
						"type": "text"
					}
				],
				"body": {
					"mode": "raw",
					"raw": "{\r\n  \"deviceHardwareId\": \"a1\",\r\n  \"name\": \"a1\",\r\n  \"assetRegister\": \"a1\",\r\n  \"mdmRegistrationDate\": \"2021-12-07\",\r\n  \"startDate\": \"2021-12-08\",\r\n  \"endDate\": \"2022-12-07\"\r\n}",
					"options": {
						"raw": {
							"language": "json"
						}
					}
				},
				"url": {
					"raw": "{{ApiHost}}/ip/approval/reject/a830db4c9804eb56e48701532ecb81c1",
					"host": [
						"{{ApiHost}}"
					],
					"path": [
						"ip",
						"approval",
						"reject",
						"a830db4c9804eb56e48701532ecb81c1"
					]
				}
			},
			"response": []
		},
		{
			"name": "Branch--search",
			"protocolProfileBehavior": {
				"disableBodyPruning": true
			},
			"request": {
				"method": "GET",
				"header": [
					{
						"key": "x-token",
						"value": "{{x-token}}",
						"type": "text"
					},
					{
						"key": "x-deviceid",
						"value": "{{x-deviceid}}",
						"type": "text"
					},
					{
						"key": "Content-Type",
						"value": "application/json",
						"type": "text"
					}
				],
				"body": {
					"mode": "raw",
					"raw": "",
					"options": {
						"raw": {
							"language": "json"
						}
					}
				},
				"url": {
					"raw": "{{ApiHost}}/branch?_page=1&_pageSize=10",
					"host": [
						"{{ApiHost}}"
					],
					"path": [
						"branch"
					],
					"query": [
						{
							"key": "_keyword",
							"value": "a",
							"disabled": true
						},
						{
							"key": "_page",
							"value": "1"
						},
						{
							"key": "_pageSize",
							"value": "10"
						}
					]
				}
			},
			"response": []
		},
		{
			"name": "Branch--create",
			"request": {
				"auth": {
					"type": "noauth"
				},
				"method": "POST",
				"header": [
					{
						"key": "x-token",
						"value": "{{x-token}}",
						"type": "text"
					},
					{
						"key": "x-deviceid",
						"value": "{{x-deviceid}}",
						"type": "text"
					},
					{
						"key": "Content-Type",
						"value": "application/json",
						"type": "text"
					}
				],
				"body": {
					"mode": "raw",
					"raw": "{\r\n    \"name\":\"branch1\",\r\n    \"subsidiary\":\"branch1\",\r\n    \"code\":\"branch1\",\r\n    \"location\":\"branch1\",\r\n    \"startDate\":\"2021-12-11\",\r\n    \"endDate\":\"2022-11-15\"\r\n}",
					"options": {
						"raw": {
							"language": "json"
						}
					}
				},
				"url": {
					"raw": "{{ApiHost}}/branch",
					"host": [
						"{{ApiHost}}"
					],
					"path": [
						"branch"
					]
				}
			},
			"response": []
		},
		{
			"name": "Branch--update",
			"request": {
				"method": "PUT",
				"header": [
					{
						"key": "x-token",
						"value": "{{x-token}}",
						"type": "text"
					},
					{
						"key": "x-deviceid",
						"value": "{{x-deviceid}}",
						"type": "text"
					},
					{
						"key": "Content-Type",
						"value": "application/json",
						"type": "text"
					}
				],
				"body": {
					"mode": "raw",
					"raw": "{\r\n    \"subsidiary\":\"ip1\",\r\n    \"location\":\"ip1xxx\",\r\n    \"endDate\":\"2022-11-15\"\r\n}",
					"options": {
						"raw": {
							"language": "json"
						}
					}
				},
				"url": {
					"raw": "{{ApiHost}}/branch/d0fa51a5d96b5aac7e6a421e0d421569",
					"host": [
						"{{ApiHost}}"
					],
					"path": [
						"branch",
						"d0fa51a5d96b5aac7e6a421e0d421569"
					]
				}
			},
			"response": []
		},
		{
			"name": "Branch--deactivate",
			"request": {
				"method": "DELETE",
				"header": [
					{
						"key": "x-token",
						"value": "{{x-token}}",
						"type": "text"
					},
					{
						"key": "x-deviceid",
						"value": "{{x-deviceid}}",
						"type": "text"
					},
					{
						"key": "Content-Type",
						"value": "application/json",
						"type": "text"
					}
				],
				"body": {
					"mode": "raw",
					"raw": "",
					"options": {
						"raw": {
							"language": "json"
						}
					}
				},
				"url": {
					"raw": "{{ApiHost}}/branch/d0fa51a5d96b5aac7e6a421e0d421569",
					"host": [
						"{{ApiHost}}"
					],
					"path": [
						"branch",
						"d0fa51a5d96b5aac7e6a421e0d421569"
					]
				}
			},
			"response": []
		},
		{
			"name": "Branch--detail",
			"protocolProfileBehavior": {
				"disableBodyPruning": true
			},
			"request": {
				"method": "GET",
				"header": [
					{
						"key": "x-token",
						"value": "{{x-token}}",
						"type": "text"
					},
					{
						"key": "x-deviceid",
						"value": "{{x-deviceid}}",
						"type": "text"
					},
					{
						"key": "Content-Type",
						"value": "application/json",
						"type": "text"
					}
				],
				"body": {
					"mode": "raw",
					"raw": "",
					"options": {
						"raw": {
							"language": "json"
						}
					}
				},
				"url": {
					"raw": "{{ApiHost}}/branch/d0fa51a5d96b5aac7e6a421e0d421569",
					"host": [
						"{{ApiHost}}"
					],
					"path": [
						"branch",
						"d0fa51a5d96b5aac7e6a421e0d421569"
					]
				}
			},
			"response": []
		},
		{
			"name": "Branch--approveSearch",
			"protocolProfileBehavior": {
				"disableBodyPruning": true
			},
			"request": {
				"method": "GET",
				"header": [
					{
						"key": "x-token",
						"value": "{{x-token}}",
						"type": "text"
					},
					{
						"key": "x-deviceid",
						"value": "{{x-deviceid}}",
						"type": "text"
					},
					{
						"warning": "This is a duplicate header and will be overridden by the Content-Type header generated by Postman.",
						"key": "Content-Type",
						"value": "application/json",
						"type": "text"
					}
				],
				"body": {
					"mode": "urlencoded",
					"urlencoded": []
				},
				"url": {
					"raw": "{{ApiHost}}/branch/approval/index?_page=1&_pagesize=10",
					"host": [
						"{{ApiHost}}"
					],
					"path": [
						"branch",
						"approval",
						"index"
					],
					"query": [
						{
							"key": "_keyword",
							"value": null,
							"disabled": true
						},
						{
							"key": "_page",
							"value": "1"
						},
						{
							"key": "_pagesize",
							"value": "10"
						}
					]
				}
			},
			"response": []
		},
		{
			"name": "Branch--approvePass",
			"request": {
				"method": "POST",
				"header": [
					{
						"key": "x-token",
						"value": "{{x-token}}",
						"type": "text"
					},
					{
						"key": "x-deviceid",
						"value": "{{x-deviceid}}",
						"type": "text"
					},
					{
						"key": "Content-Type",
						"value": "application/json",
						"type": "text"
					}
				],
				"body": {
					"mode": "raw",
					"raw": "",
					"options": {
						"raw": {
							"language": "json"
						}
					}
				},
				"url": {
					"raw": "{{ApiHost}}/branch/approval/pass/962a43fa0723bdac796a5c3da560dde4",
					"host": [
						"{{ApiHost}}"
					],
					"path": [
						"branch",
						"approval",
						"pass",
						"962a43fa0723bdac796a5c3da560dde4"
					]
				}
			},
			"response": []
		},
		{
			"name": "Branch--approveReject",
			"request": {
				"method": "POST",
				"header": [
					{
						"key": "x-token",
						"value": "{{x-token}}",
						"type": "text"
					},
					{
						"key": "x-deviceid",
						"value": "{{x-deviceid}}",
						"type": "text"
					},
					{
						"key": "Content-Type",
						"value": "application/json",
						"type": "text"
					}
				],
				"body": {
					"mode": "raw",
					"raw": "",
					"options": {
						"raw": {
							"language": "json"
						}
					}
				},
				"url": {
					"raw": "{{ApiHost}}/branch/approval/reject/d0fa51a5d96b5aac7e6a421e0d421569",
					"host": [
						"{{ApiHost}}"
					],
					"path": [
						"branch",
						"approval",
						"reject",
						"d0fa51a5d96b5aac7e6a421e0d421569"
					]
				}
			},
			"response": []
		},
		{
			"name": "Tenant--search",
			"protocolProfileBehavior": {
				"disableBodyPruning": true
			},
			"request": {
				"method": "GET",
				"header": [
					{
						"key": "x-token",
						"value": "{{x-token}}",
						"type": "text"
					},
					{
						"key": "x-deviceid",
						"value": "{{x-deviceid}}",
						"type": "text"
					},
					{
						"key": "Content-Type",
						"value": "application/json",
						"type": "text"
					}
				],
				"body": {
					"mode": "raw",
					"raw": "",
					"options": {
						"raw": {
							"language": "json"
						}
					}
				},
				"url": {
					"raw": "{{ApiHost}}/tenant?_page=1&_pageSize=10",
					"host": [
						"{{ApiHost}}"
					],
					"path": [
						"tenant"
					],
					"query": [
						{
							"key": "_keyword",
							"value": "a",
							"disabled": true
						},
						{
							"key": "_page",
							"value": "1"
						},
						{
							"key": "_pageSize",
							"value": "10"
						}
					]
				}
			},
			"response": []
		},
		{
			"name": "Tenant--create",
			"request": {
				"auth": {
					"type": "noauth"
				},
				"method": "POST",
				"header": [
					{
						"key": "x-token",
						"value": "{{x-token}}",
						"type": "text"
					},
					{
						"key": "x-deviceid",
						"value": "{{x-deviceid}}",
						"type": "text"
					},
					{
						"key": "Content-Type",
						"value": "application/json",
						"type": "text"
					}
				],
				"body": {
					"mode": "raw",
					"raw": "{\r\n    \"name\":\"client17\",\r\n    \"description\":\"zman1\",\r\n    \"image\":\"http://xxx.com/1.jpg\",\r\n    \"startDate\":\"2021-12-08\",\r\n    \"endDate\":\"2021-12-12\",\r\n    \"addRoleUrl\":\"111111\",\r\n    \"deleteRoleUrl\":\"111111\",\r\n    \"webhookUrl\":\"111111\",\r\n    \"redirectUris\":[\"http://111111\",\"http://111112\"],\r\n    \"webOrigins\":[\"111111\",\"22222\"]\r\n}",
					"options": {
						"raw": {
							"language": "json"
						}
					}
				},
				"url": {
					"raw": "{{ApiHost}}/tenant",
					"host": [
						"{{ApiHost}}"
					],
					"path": [
						"tenant"
					]
				}
			},
			"response": []
		},
		{
			"name": "Tenant--update",
			"request": {
				"method": "PUT",
				"header": [
					{
						"key": "x-token",
						"value": "{{x-token}}",
						"type": "text"
					},
					{
						"key": "x-deviceid",
						"value": "{{x-deviceid}}",
						"type": "text"
					},
					{
						"key": "Content-Type",
						"value": "application/json",
						"type": "text"
					}
				],
				"body": {
					"mode": "raw",
					"raw": "{\r\n    \"description\":\"zman5\",\r\n    \"image\":\"http://xxx.com/1.jpg\",\r\n    \"endDate\":\"2021-12-12\",\r\n    \"addRoleUrl\":\"111111\",\r\n    \"deleteRoleUrl\":\"111d111\",\r\n    \"webhookUrl\":\"111111\",\r\n    \"redirectUris\":[\"http://111111\",\"http://111112\"],\r\n    \"webOrigins\":[\"111111\",\"22222\"]\r\n}",
					"options": {
						"raw": {
							"language": "json"
						}
					}
				},
				"url": {
					"raw": "{{ApiHost}}/tenant/e1dcd2f0de95937e4099979dba75fbd9",
					"host": [
						"{{ApiHost}}"
					],
					"path": [
						"tenant",
						"e1dcd2f0de95937e4099979dba75fbd9"
					]
				}
			},
			"response": []
		},
		{
			"name": "Tenant--deactivate",
			"request": {
				"method": "DELETE",
				"header": [
					{
						"key": "x-token",
						"value": "{{x-token}}",
						"type": "text"
					},
					{
						"key": "x-deviceid",
						"value": "{{x-deviceid}}",
						"type": "text"
					},
					{
						"key": "Content-Type",
						"value": "application/json",
						"type": "text"
					}
				],
				"body": {
					"mode": "raw",
					"raw": "",
					"options": {
						"raw": {
							"language": "json"
						}
					}
				},
				"url": {
					"raw": "{{ApiHost}}/tenant/e1dcd2f0de95937e4099979dba75fbd9",
					"host": [
						"{{ApiHost}}"
					],
					"path": [
						"tenant",
						"e1dcd2f0de95937e4099979dba75fbd9"
					]
				}
			},
			"response": []
		},
		{
			"name": "Tenant--detail",
			"protocolProfileBehavior": {
				"disableBodyPruning": true
			},
			"request": {
				"method": "GET",
				"header": [
					{
						"key": "x-token",
						"value": "{{x-token}}",
						"type": "text"
					},
					{
						"key": "x-deviceid",
						"value": "{{x-deviceid}}",
						"type": "text"
					},
					{
						"key": "Content-Type",
						"value": "application/json",
						"type": "text"
					}
				],
				"body": {
					"mode": "raw",
					"raw": "",
					"options": {
						"raw": {
							"language": "json"
						}
					}
				},
				"url": {
					"raw": "{{ApiHost}}/tenant/2b01f724b75c15c6b67317d406ad9f3c",
					"host": [
						"{{ApiHost}}"
					],
					"path": [
						"tenant",
						"2b01f724b75c15c6b67317d406ad9f3c"
					]
				}
			},
			"response": []
		},
		{
			"name": "Tenant--approveSearch",
			"protocolProfileBehavior": {
				"disableBodyPruning": true
			},
			"request": {
				"method": "GET",
				"header": [
					{
						"key": "x-token",
						"value": "{{x-token}}",
						"type": "text"
					},
					{
						"key": "x-deviceid",
						"value": "{{x-deviceid}}",
						"type": "text"
					},
					{
						"warning": "This is a duplicate header and will be overridden by the Content-Type header generated by Postman.",
						"key": "Content-Type",
						"value": "application/json",
						"type": "text"
					}
				],
				"body": {
					"mode": "urlencoded",
					"urlencoded": []
				},
				"url": {
					"raw": "{{ApiHost}}/tenant/approval/index?_page=1&_pagesize=10",
					"host": [
						"{{ApiHost}}"
					],
					"path": [
						"tenant",
						"approval",
						"index"
					],
					"query": [
						{
							"key": "_keyword",
							"value": null,
							"disabled": true
						},
						{
							"key": "_page",
							"value": "1"
						},
						{
							"key": "_pagesize",
							"value": "10"
						}
					]
				}
			},
			"response": []
		},
		{
			"name": "Tenant--approvePass",
			"request": {
				"method": "POST",
				"header": [
					{
						"key": "x-token",
						"value": "{{x-token}}",
						"type": "text"
					},
					{
						"key": "x-deviceid",
						"value": "{{x-deviceid}}",
						"type": "text"
					},
					{
						"key": "Content-Type",
						"value": "application/json",
						"type": "text"
					}
				],
				"body": {
					"mode": "raw",
					"raw": "",
					"options": {
						"raw": {
							"language": "json"
						}
					}
				},
				"url": {
					"raw": "{{ApiHost}}/tenant/approval/pass/2b01f724b75c15c6b67317d406ad9f3c",
					"host": [
						"{{ApiHost}}"
					],
					"path": [
						"tenant",
						"approval",
						"pass",
						"2b01f724b75c15c6b67317d406ad9f3c"
					]
				}
			},
			"response": []
		},
		{
			"name": "Tenant--approveReject",
			"request": {
				"method": "POST",
				"header": [
					{
						"key": "x-token",
						"value": "{{x-token}}",
						"type": "text"
					},
					{
						"key": "x-deviceid",
						"value": "{{x-deviceid}}",
						"type": "text"
					},
					{
						"key": "Content-Type",
						"value": "application/json",
						"type": "text"
					}
				],
				"body": {
					"mode": "raw",
					"raw": "",
					"options": {
						"raw": {
							"language": "json"
						}
					}
				},
				"url": {
					"raw": "{{ApiHost}}/tenant/approval/reject/e1dcd2f0de95937e4099979dba75fbd9",
					"host": [
						"{{ApiHost}}"
					],
					"path": [
						"tenant",
						"approval",
						"reject",
						"e1dcd2f0de95937e4099979dba75fbd9"
					]
				}
			},
			"response": []
		},
		{
			"name": "Tenant--uploadAvatar",
			"request": {
				"auth": {
					"type": "noauth"
				},
				"method": "POST",
				"header": [
					{
						"key": "x-token",
						"value": "{{x-token}}",
						"type": "text"
					},
					{
						"key": "x-deviceid",
						"value": "{{x-deviceid}}",
						"type": "text"
					},
					{
						"key": "Content-Type",
						"value": "application/json",
						"type": "text"
					}
				],
				"body": {
					"mode": "formdata",
					"formdata": [
						{
							"key": "avatar",
							"type": "file",
							"src": "/G:/Downloads/logo-cnd.jpg"
						}
					]
				},
				"url": {
					"raw": "{{ApiHost}}/tenant/e1dcd2f0de95937e4099979dba75fbd9/avatar",
					"host": [
						"{{ApiHost}}"
					],
					"path": [
						"tenant",
						"e1dcd2f0de95937e4099979dba75fbd9",
						"avatar"
					]
				}
			},
			"response": []
		},
		{
			"name": "Tenant--getAvatar",
			"request": {
				"auth": {
					"type": "noauth"
				},
				"method": "GET",
				"header": [
					{
						"key": "x-token",
						"value": "{{x-token}}",
						"type": "text"
					},
					{
						"key": "x-deviceid",
						"value": "{{x-deviceid}}",
						"type": "text"
					},
					{
						"key": "Content-Type",
						"value": "application/json",
						"type": "text"
					}
				],
				"url": {
					"raw": "{{ApiHost}}/tenant/e1dcd2f0de95937e4099979dba75fbd9/avatar",
					"host": [
						"{{ApiHost}}"
					],
					"path": [
						"tenant",
						"e1dcd2f0de95937e4099979dba75fbd9",
						"avatar"
					]
				}
			},
			"response": []
		},
		{
			"name": "Tenant--getSessionInfos",
			"request": {
				"auth": {
					"type": "noauth"
				},
				"method": "GET",
				"header": [
					{
						"key": "x-token",
						"value": "{{x-token}}",
						"type": "text"
					},
					{
						"key": "x-deviceid",
						"value": "{{x-deviceid}}",
						"type": "text"
					},
					{
						"key": "Content-Type",
						"value": "application/json",
						"type": "text"
					}
				],
				"url": {
					"raw": "{{ApiHost}}/tenant/session/infos",
					"host": [
						"{{ApiHost}}"
					],
					"path": [
						"tenant",
						"session",
						"infos"
					]
				}
			},
			"response": []
		},
		{
			"name": "Role--search",
			"protocolProfileBehavior": {
				"disableBodyPruning": true
			},
			"request": {
				"method": "GET",
				"header": [
					{
						"key": "x-token",
						"value": "{{x-token}}",
						"type": "text"
					},
					{
						"key": "x-deviceid",
						"value": "{{x-deviceid}}",
						"type": "text"
					},
					{
						"key": "Content-Type",
						"value": "application/json",
						"type": "text"
					}
				],
				"body": {
					"mode": "raw",
					"raw": "",
					"options": {
						"raw": {
							"language": "json"
						}
					}
				},
				"url": {
					"raw": "{{ApiHost}}/role?_page=1&_pageSize=10",
					"host": [
						"{{ApiHost}}"
					],
					"path": [
						"role"
					],
					"query": [
						{
							"key": "_keyword",
							"value": "a",
							"disabled": true
						},
						{
							"key": "_page",
							"value": "1"
						},
						{
							"key": "_pageSize",
							"value": "10"
						}
					]
				}
			},
			"response": []
		},
		{
			"name": "Role--create",
			"request": {
				"auth": {
					"type": "noauth"
				},
				"method": "POST",
				"header": [
					{
						"key": "x-token",
						"value": "{{x-token}}",
						"type": "text"
					},
					{
						"key": "x-deviceid",
						"value": "{{x-deviceid}}",
						"type": "text"
					},
					{
						"key": "Content-Type",
						"value": "application/json",
						"type": "text"
					}
				],
				"body": {
					"mode": "raw",
					"raw": "{\r\n    \"name\":\"role3\",\r\n    \"tenantId\":\"2b01f724b75c15c6b67317d406ad9f3c\",\r\n    \"startDate\":\"2021-12-11\",\r\n    \"endDate\":\"2022-11-15\"\r\n}",
					"options": {
						"raw": {
							"language": "json"
						}
					}
				},
				"url": {
					"raw": "{{ApiHost}}/role",
					"host": [
						"{{ApiHost}}"
					],
					"path": [
						"role"
					]
				}
			},
			"response": []
		},
		{
			"name": "Role--update",
			"request": {
				"method": "PUT",
				"header": [
					{
						"key": "x-token",
						"value": "{{x-token}}",
						"type": "text"
					},
					{
						"key": "x-deviceid",
						"value": "{{x-deviceid}}",
						"type": "text"
					},
					{
						"key": "Content-Type",
						"value": "application/json",
						"type": "text"
					}
				],
				"body": {
					"mode": "raw",
					"raw": "{\r\n    \"endDate\":\"2022-12-16\"\r\n}",
					"options": {
						"raw": {
							"language": "json"
						}
					}
				},
				"url": {
					"raw": "{{ApiHost}}/role/66f8124fc9e9ce8989d30219a28e14b3",
					"host": [
						"{{ApiHost}}"
					],
					"path": [
						"role",
						"66f8124fc9e9ce8989d30219a28e14b3"
					]
				}
			},
			"response": []
		},
		{
			"name": "Role--detail",
			"protocolProfileBehavior": {
				"disableBodyPruning": true
			},
			"request": {
				"method": "GET",
				"header": [
					{
						"key": "x-token",
						"value": "{{x-token}}",
						"type": "text"
					},
					{
						"key": "x-deviceid",
						"value": "{{x-deviceid}}",
						"type": "text"
					},
					{
						"key": "Content-Type",
						"value": "application/json",
						"type": "text"
					}
				],
				"body": {
					"mode": "raw",
					"raw": "",
					"options": {
						"raw": {
							"language": "json"
						}
					}
				},
				"url": {
					"raw": "{{ApiHost}}/role/a07c0abd4dcb8d109434bd395546c52e",
					"host": [
						"{{ApiHost}}"
					],
					"path": [
						"role",
						"a07c0abd4dcb8d109434bd395546c52e"
					]
				}
			},
			"response": []
		},
		{
			"name": "Role--deactivate",
			"request": {
				"method": "DELETE",
				"header": [
					{
						"key": "x-token",
						"value": "{{x-token}}",
						"type": "text"
					},
					{
						"key": "x-deviceid",
						"value": "{{x-deviceid}}",
						"type": "text"
					},
					{
						"key": "Content-Type",
						"value": "application/json",
						"type": "text"
					}
				],
				"body": {
					"mode": "raw",
					"raw": "",
					"options": {
						"raw": {
							"language": "json"
						}
					}
				},
				"url": {
					"raw": "{{ApiHost}}/role/dd1c27cbc97fbbe3266799a06c9dc5e7?force=0",
					"host": [
						"{{ApiHost}}"
					],
					"path": [
						"role",
						"dd1c27cbc97fbbe3266799a06c9dc5e7"
					],
					"query": [
						{
							"key": "force",
							"value": "0"
						}
					]
				}
			},
			"response": []
		},
		{
			"name": "Role--approveSearch",
			"protocolProfileBehavior": {
				"disableBodyPruning": true
			},
			"request": {
				"method": "GET",
				"header": [
					{
						"key": "x-token",
						"value": "{{x-token}}",
						"type": "text"
					},
					{
						"key": "x-deviceid",
						"value": "{{x-deviceid}}",
						"type": "text"
					},
					{
						"warning": "This is a duplicate header and will be overridden by the Content-Type header generated by Postman.",
						"key": "Content-Type",
						"value": "application/json",
						"type": "text"
					}
				],
				"body": {
					"mode": "urlencoded",
					"urlencoded": []
				},
				"url": {
					"raw": "{{ApiHost}}/role/approval/index?_page=1&_pagesize=10",
					"host": [
						"{{ApiHost}}"
					],
					"path": [
						"role",
						"approval",
						"index"
					],
					"query": [
						{
							"key": "_keyword",
							"value": "ip20",
							"disabled": true
						},
						{
							"key": "_page",
							"value": "1"
						},
						{
							"key": "_pagesize",
							"value": "10"
						}
					]
				}
			},
			"response": []
		},
		{
			"name": "Role--approvePass",
			"request": {
				"method": "POST",
				"header": [
					{
						"key": "x-token",
						"value": "{{x-token}}",
						"type": "text"
					},
					{
						"key": "x-deviceid",
						"value": "{{x-deviceid}}",
						"type": "text"
					},
					{
						"key": "Content-Type",
						"value": "application/json",
						"type": "text"
					}
				],
				"body": {
					"mode": "raw",
					"raw": "",
					"options": {
						"raw": {
							"language": "json"
						}
					}
				},
				"url": {
					"raw": "{{ApiHost}}/role/approval/pass/26aabaa3685d216e6043547c50197f31",
					"host": [
						"{{ApiHost}}"
					],
					"path": [
						"role",
						"approval",
						"pass",
						"26aabaa3685d216e6043547c50197f31"
					]
				}
			},
			"response": []
		},
		{
			"name": "Role--approveReject",
			"request": {
				"method": "POST",
				"header": [
					{
						"key": "x-token",
						"value": "{{x-token}}",
						"type": "text"
					},
					{
						"key": "x-deviceid",
						"value": "{{x-deviceid}}",
						"type": "text"
					},
					{
						"key": "Content-Type",
						"value": "application/json",
						"type": "text"
					}
				],
				"body": {
					"mode": "raw",
					"raw": "{\r\n  \"deviceHardwareId\": \"a1\",\r\n  \"name\": \"a1\",\r\n  \"assetRegister\": \"a1\",\r\n  \"mdmRegistrationDate\": \"2021-12-07\",\r\n  \"startDate\": \"2021-12-08\",\r\n  \"endDate\": \"2022-12-07\"\r\n}",
					"options": {
						"raw": {
							"language": "json"
						}
					}
				},
				"url": {
					"raw": "{{ApiHost}}/role/approval/reject/dd1c27cbc97fbbe3266799a06c9dc5e7",
					"host": [
						"{{ApiHost}}"
					],
					"path": [
						"role",
						"approval",
						"reject",
						"dd1c27cbc97fbbe3266799a06c9dc5e7"
					]
				}
			},
			"response": []
		},
		{
			"name": "User--search",
			"protocolProfileBehavior": {
				"disableBodyPruning": true
			},
			"request": {
				"method": "GET",
				"header": [
					{
						"key": "x-token",
						"value": "{{x-token}}",
						"type": "text"
					},
					{
						"key": "x-deviceid",
						"value": "{{x-deviceid}}",
						"type": "text"
					},
					{
						"key": "Content-Type",
						"value": "application/json",
						"type": "text"
					}
				],
				"body": {
					"mode": "raw",
					"raw": "",
					"options": {
						"raw": {
							"language": "json"
						}
					}
				},
				"url": {
					"raw": "{{ApiHost}}/user?_page=1&_pageSize=10",
					"host": [
						"{{ApiHost}}"
					],
					"path": [
						"user"
					],
					"query": [
						{
							"key": "_keyword",
							"value": "a",
							"disabled": true
						},
						{
							"key": "_page",
							"value": "1"
						},
						{
							"key": "_pageSize",
							"value": "10"
						}
					]
				}
			},
			"response": []
		},
		{
			"name": "User--create",
			"request": {
				"auth": {
					"type": "noauth"
				},
				"method": "POST",
				"header": [
					{
						"key": "x-token",
						"value": "{{x-token}}",
						"type": "text"
					},
					{
						"key": "x-deviceid",
						"value": "{{x-deviceid}}",
						"type": "text"
					},
					{
						"key": "Content-Type",
						"value": "application/json",
						"type": "text"
					}
				],
				"body": {
					"mode": "raw",
					"raw": "{\r\n    \"authUserId\":\"b7050f16-fcfc-4d62-af68-07dba6c2c873\",\r\n    \"name\":\"superadmin\",\r\n    \"phone\":\"111111\",\r\n    \"email\":\"111111@xx.com\",\r\n    \"ipList\":[\r\n        {\r\n            \"ipId\":\"61391f2f4388115df0e1eecfa17ac43c\",\r\n            \"startDate\":\"2021-12-12\",\r\n            \"endDate\":\"2022-11-12\"\r\n        }\r\n    ],\r\n    \"deviceList\":[\r\n        {\r\n            \"deviceId\":\"db1680050a076e257d7a1e52651e0969\",\r\n            \"startDate\":\"2021-12-12\",\r\n            \"endDate\":\"2022-11-12\"\r\n        }\r\n    ],\r\n    \"roleList\":[\r\n        {\r\n            \"roleId\":\"26aabaa3685d216e6043547c50197f31\",\r\n            \"branchId\":\"962a43fa0723bdac796a5c3da560dde4\",\r\n            \"startDate\":\"2021-12-12\",\r\n            \"endDate\":\"2022-11-12\"\r\n        }\r\n    ]\r\n}",
					"options": {
						"raw": {
							"language": "json"
						}
					}
				},
				"url": {
					"raw": "{{ApiHost}}/user",
					"host": [
						"{{ApiHost}}"
					],
					"path": [
						"user"
					]
				}
			},
			"response": []
		},
		{
			"name": "User--update",
			"request": {
				"method": "PUT",
				"header": [
					{
						"key": "x-token",
						"value": "{{x-token}}",
						"type": "text"
					},
					{
						"key": "x-deviceid",
						"value": "{{x-deviceid}}",
						"type": "text"
					},
					{
						"key": "Content-Type",
						"value": "application/json",
						"type": "text"
					}
				],
				"body": {
					"mode": "raw",
					"raw": "{\r\n    \"authUserId\":\"0021\",\r\n    \"name\":\"zman51\",\r\n    \"phone\":\"111111\",\r\n    \"email\":\"111111@xx.com\",\r\n    \"ipList\":[\r\n        {\r\n            \"_id\":\"b5682ab1cf55e75520486f758d89eaxx\",\r\n            \"ipId\":\"b5682ab1cf55e75520486f758d89eaf7\",\r\n            \"startDate\":\"2021-12-12\",\r\n            \"endDate\":\"2022-11-12\"\r\n        }\r\n    ],\r\n    \"deviceList\":[\r\n        {\r\n            \"deviceId\":\"b5682ab1cf55e75520486f758d89eaf7\",\r\n            \"startDate\":\"2021-12-12\",\r\n            \"endDate\":\"2022-11-12\"\r\n        }\r\n    ],\r\n    \"roleList\":[\r\n        {\r\n            \"roleId\":\"b5682ab1cf55e75520486f758d89eaf7\",\r\n            \"branchId\":\"b5682ab1cf55e75520486f758d89eaf7\",\r\n            \"startDate\":\"2021-12-12\",\r\n            \"endDate\":\"2022-11-12\"\r\n        }\r\n    ]\r\n}",
					"options": {
						"raw": {
							"language": "json"
						}
					}
				},
				"url": {
					"raw": "{{ApiHost}}/user/a830db4c9804eb56e48701532ecb81c1",
					"host": [
						"{{ApiHost}}"
					],
					"path": [
						"user",
						"a830db4c9804eb56e48701532ecb81c1"
					]
				}
			},
			"response": []
		},
		{
			"name": "User--detail",
			"protocolProfileBehavior": {
				"disableBodyPruning": true
			},
			"request": {
				"method": "GET",
				"header": [
					{
						"key": "x-token",
						"value": "{{x-token}}",
						"type": "text"
					},
					{
						"key": "x-deviceid",
						"value": "{{x-deviceid}}",
						"type": "text"
					},
					{
						"key": "Content-Type",
						"value": "application/json",
						"type": "text"
					}
				],
				"body": {
					"mode": "raw",
					"raw": "",
					"options": {
						"raw": {
							"language": "json"
						}
					}
				},
				"url": {
					"raw": "{{ApiHost}}/user/add64f4a769e1c6989c46629ace5b801",
					"host": [
						"{{ApiHost}}"
					],
					"path": [
						"user",
						"add64f4a769e1c6989c46629ace5b801"
					]
				}
			},
			"response": []
		},
		{
			"name": "User--deactivate",
			"request": {
				"method": "DELETE",
				"header": [
					{
						"key": "x-token",
						"value": "{{x-token}}",
						"type": "text"
					},
					{
						"key": "x-deviceid",
						"value": "{{x-deviceid}}",
						"type": "text"
					},
					{
						"key": "Content-Type",
						"value": "application/json",
						"type": "text"
					}
				],
				"body": {
					"mode": "raw",
					"raw": "",
					"options": {
						"raw": {
							"language": "json"
						}
					}
				},
				"url": {
					"raw": "{{ApiHost}}/user/dd1c27cbc97fbbe3266799a06c9dc5e7?force=0",
					"host": [
						"{{ApiHost}}"
					],
					"path": [
						"user",
						"dd1c27cbc97fbbe3266799a06c9dc5e7"
					],
					"query": [
						{
							"key": "force",
							"value": "0"
						}
					]
				}
			},
			"response": []
		},
		{
			"name": "User--approveSearch",
			"protocolProfileBehavior": {
				"disableBodyPruning": true
			},
			"request": {
				"method": "GET",
				"header": [
					{
						"key": "x-token",
						"value": "{{x-token}}",
						"type": "text"
					},
					{
						"key": "x-deviceid",
						"value": "{{x-deviceid}}",
						"type": "text"
					},
					{
						"warning": "This is a duplicate header and will be overridden by the Content-Type header generated by Postman.",
						"key": "Content-Type",
						"value": "application/json",
						"type": "text"
					}
				],
				"body": {
					"mode": "urlencoded",
					"urlencoded": [
						{
							"key": "_keyword",
							"value": "zman",
							"type": "text",
							"disabled": true
						},
						{
							"key": "_page",
							"value": "1",
							"type": "text"
						},
						{
							"key": "_pagesize",
							"value": "10",
							"type": "text"
						}
					]
				},
				"url": {
					"raw": "{{ApiHost}}/user/approval/index",
					"host": [
						"{{ApiHost}}"
					],
					"path": [
						"user",
						"approval",
						"index"
					]
				}
			},
			"response": []
		},
		{
			"name": "User--approvePass(cancel)",
			"request": {
				"method": "POST",
				"header": [
					{
						"key": "x-token",
						"value": "{{x-token}}",
						"type": "text"
					},
					{
						"key": "x-deviceid",
						"value": "{{x-deviceid}}",
						"type": "text"
					},
					{
						"key": "Content-Type",
						"value": "application/json",
						"type": "text"
					}
				],
				"body": {
					"mode": "raw",
					"raw": "",
					"options": {
						"raw": {
							"language": "json"
						}
					}
				},
				"url": {
					"raw": "{{ApiHost}}/user/approval/pass/c9559b229c560216af56f837c6146af9",
					"host": [
						"{{ApiHost}}"
					],
					"path": [
						"user",
						"approval",
						"pass",
						"c9559b229c560216af56f837c6146af9"
					]
				}
			},
			"response": []
		},
		{
			"name": "User--approveReject(cancel)",
			"request": {
				"method": "POST",
				"header": [
					{
						"key": "x-token",
						"value": "{{x-token}}",
						"type": "text"
					},
					{
						"key": "x-deviceid",
						"value": "{{x-deviceid}}",
						"type": "text"
					},
					{
						"key": "Content-Type",
						"value": "application/json",
						"type": "text"
					}
				],
				"body": {
					"mode": "raw",
					"raw": "{\r\n  \"deviceHardwareId\": \"a1\",\r\n  \"name\": \"a1\",\r\n  \"assetRegister\": \"a1\",\r\n  \"mdmRegistrationDate\": \"2021-12-07\",\r\n  \"startDate\": \"2021-12-08\",\r\n  \"endDate\": \"2022-12-07\"\r\n}",
					"options": {
						"raw": {
							"language": "json"
						}
					}
				},
				"url": {
					"raw": "{{ApiHost}}/user/approval/reject/dd1c27cbc97fbbe3266799a06c9dc5e7",
					"host": [
						"{{ApiHost}}"
					],
					"path": [
						"user",
						"approval",
						"reject",
						"dd1c27cbc97fbbe3266799a06c9dc5e7"
					]
				}
			},
			"response": []
		},
		{
			"name": "User--IP--approvePass",
			"request": {
				"method": "POST",
				"header": [
					{
						"key": "x-token",
						"value": "{{x-token}}",
						"type": "text"
					},
					{
						"key": "x-deviceid",
						"value": "{{x-deviceid}}",
						"type": "text"
					},
					{
						"key": "Content-Type",
						"value": "application/json",
						"type": "text"
					}
				],
				"body": {
					"mode": "raw",
					"raw": "",
					"options": {
						"raw": {
							"language": "json"
						}
					}
				},
				"url": {
					"raw": "{{ApiHost}}/user/ip/approval/pass/f3dc90f305eed3215a8c2ced32527607",
					"host": [
						"{{ApiHost}}"
					],
					"path": [
						"user",
						"ip",
						"approval",
						"pass",
						"f3dc90f305eed3215a8c2ced32527607"
					]
				}
			},
			"response": []
		},
		{
			"name": "User--IP--approveReject",
			"request": {
				"method": "POST",
				"header": [
					{
						"key": "x-token",
						"value": "{{x-token}}",
						"type": "text"
					},
					{
						"key": "x-deviceid",
						"value": "{{x-deviceid}}",
						"type": "text"
					},
					{
						"key": "Content-Type",
						"value": "application/json",
						"type": "text"
					}
				],
				"body": {
					"mode": "raw",
					"raw": "{\r\n  \"deviceHardwareId\": \"a1\",\r\n  \"name\": \"a1\",\r\n  \"assetRegister\": \"a1\",\r\n  \"mdmRegistrationDate\": \"2021-12-07\",\r\n  \"startDate\": \"2021-12-08\",\r\n  \"endDate\": \"2022-12-07\"\r\n}",
					"options": {
						"raw": {
							"language": "json"
						}
					}
				},
				"url": {
					"raw": "{{ApiHost}}/user/ip/approval/reject/dd1c27cbc97fbbe3266799a06c9dc5e7",
					"host": [
						"{{ApiHost}}"
					],
					"path": [
						"user",
						"ip",
						"approval",
						"reject",
						"dd1c27cbc97fbbe3266799a06c9dc5e7"
					]
				}
			},
			"response": []
		},
		{
			"name": "User--Device--approvePass",
			"request": {
				"method": "POST",
				"header": [
					{
						"key": "x-token",
						"value": "{{x-token}}",
						"type": "text"
					},
					{
						"key": "x-deviceid",
						"value": "{{x-deviceid}}",
						"type": "text"
					},
					{
						"key": "Content-Type",
						"value": "application/json",
						"type": "text"
					}
				],
				"body": {
					"mode": "raw",
					"raw": "",
					"options": {
						"raw": {
							"language": "json"
						}
					}
				},
				"url": {
					"raw": "{{ApiHost}}/user/device/approval/pass/464d1511c9cbf75cb6a394de56479a3d",
					"host": [
						"{{ApiHost}}"
					],
					"path": [
						"user",
						"device",
						"approval",
						"pass",
						"464d1511c9cbf75cb6a394de56479a3d"
					]
				}
			},
			"response": []
		},
		{
			"name": "User--Device--approveReject",
			"request": {
				"method": "POST",
				"header": [
					{
						"key": "x-token",
						"value": "{{x-token}}",
						"type": "text"
					},
					{
						"key": "x-deviceid",
						"value": "{{x-deviceid}}",
						"type": "text"
					},
					{
						"key": "Content-Type",
						"value": "application/json",
						"type": "text"
					}
				],
				"body": {
					"mode": "raw",
					"raw": "{\r\n  \"deviceHardwareId\": \"a1\",\r\n  \"name\": \"a1\",\r\n  \"assetRegister\": \"a1\",\r\n  \"mdmRegistrationDate\": \"2021-12-07\",\r\n  \"startDate\": \"2021-12-08\",\r\n  \"endDate\": \"2022-12-07\"\r\n}",
					"options": {
						"raw": {
							"language": "json"
						}
					}
				},
				"url": {
					"raw": "{{ApiHost}}/user/device/approval/reject/7af25f2fd0712fdf1719fbb8dbd1e664",
					"host": [
						"{{ApiHost}}"
					],
					"path": [
						"user",
						"device",
						"approval",
						"reject",
						"7af25f2fd0712fdf1719fbb8dbd1e664"
					]
				}
			},
			"response": []
		},
		{
			"name": "User--Role--approvePass",
			"request": {
				"method": "POST",
				"header": [
					{
						"key": "x-token",
						"value": "{{x-token}}",
						"type": "text"
					},
					{
						"key": "x-deviceid",
						"value": "{{x-deviceid}}",
						"type": "text"
					},
					{
						"key": "Content-Type",
						"value": "application/json",
						"type": "text"
					}
				],
				"body": {
					"mode": "raw",
					"raw": "",
					"options": {
						"raw": {
							"language": "json"
						}
					}
				},
				"url": {
					"raw": "{{ApiHost}}/user/role/approval/pass/038997defbf9dfd2712c35beb34c4c34",
					"host": [
						"{{ApiHost}}"
					],
					"path": [
						"user",
						"role",
						"approval",
						"pass",
						"038997defbf9dfd2712c35beb34c4c34"
					]
				}
			},
			"response": []
		},
		{
			"name": "User--Role--approveReject",
			"request": {
				"method": "POST",
				"header": [
					{
						"key": "x-token",
						"value": "{{x-token}}",
						"type": "text"
					},
					{
						"key": "x-deviceid",
						"value": "{{x-deviceid}}",
						"type": "text"
					},
					{
						"key": "Content-Type",
						"value": "application/json",
						"type": "text"
					}
				],
				"body": {
					"mode": "raw",
					"raw": "{\r\n  \"deviceHardwareId\": \"a1\",\r\n  \"name\": \"a1\",\r\n  \"assetRegister\": \"a1\",\r\n  \"mdmRegistrationDate\": \"2021-12-07\",\r\n  \"startDate\": \"2021-12-08\",\r\n  \"endDate\": \"2022-12-07\"\r\n}",
					"options": {
						"raw": {
							"language": "json"
						}
					}
				},
				"url": {
					"raw": "{{ApiHost}}/user/role/approval/reject/dd1c27cbc97fbbe3266799a06c9dc5e7",
					"host": [
						"{{ApiHost}}"
					],
					"path": [
						"user",
						"role",
						"approval",
						"reject",
						"dd1c27cbc97fbbe3266799a06c9dc5e7"
					]
				}
			},
			"response": []
		},
		{
			"name": "User--uploadAvatar",
			"request": {
				"auth": {
					"type": "noauth"
				},
				"method": "POST",
				"header": [
					{
						"key": "x-token",
						"value": "{{x-token}}",
						"type": "text"
					},
					{
						"key": "x-deviceid",
						"value": "{{x-deviceid}}",
						"type": "text"
					},
					{
						"key": "Content-Type",
						"value": "application/json",
						"type": "text"
					}
				],
				"body": {
					"mode": "formdata",
					"formdata": [
						{
							"key": "avatar",
							"type": "file",
							"src": "/G:/Downloads/logo-cnd.jpg"
						}
					]
				},
				"url": {
					"raw": "{{ApiHost}}/user/e1dcd2f0de95937e4099979dba75fbd9/avatar",
					"host": [
						"{{ApiHost}}"
					],
					"path": [
						"user",
						"e1dcd2f0de95937e4099979dba75fbd9",
						"avatar"
					]
				}
			},
			"response": []
		},
		{
			"name": "User--getAvatar",
			"request": {
				"auth": {
					"type": "noauth"
				},
				"method": "GET",
				"header": [
					{
						"key": "x-token",
						"value": "{{x-token}}",
						"type": "text"
					},
					{
						"key": "x-deviceid",
						"value": "{{x-deviceid}}",
						"type": "text"
					},
					{
						"key": "Content-Type",
						"value": "application/json",
						"type": "text"
					}
				],
				"url": {
					"raw": "{{ApiHost}}/user/e1dcd2f0de95937e4099979dba75fbd9/avatar",
					"host": [
						"{{ApiHost}}"
					],
					"path": [
						"user",
						"e1dcd2f0de95937e4099979dba75fbd9",
						"avatar"
					]
				}
			},
			"response": []
		},
		{
			"name": "User--keycloakSearch",
			"protocolProfileBehavior": {
				"disableBodyPruning": true
			},
			"request": {
				"method": "GET",
				"header": [
					{
						"key": "x-token",
						"value": "{{x-token}}",
						"type": "text"
					},
					{
						"key": "x-deviceid",
						"value": "{{x-deviceid}}",
						"type": "text"
					}
				],
				"body": {
					"mode": "urlencoded",
					"urlencoded": []
				},
				"url": {
					"raw": "http://ssoapi/api/user/keycloak/index?first=0&max=5",
					"protocol": "http",
					"host": [
						"ssoapi"
					],
					"path": [
						"api",
						"user",
						"keycloak",
						"index"
					],
					"query": [
						{
							"key": "search",
							"value": "yida",
							"disabled": true
						},
						{
							"key": "first",
							"value": "0"
						},
						{
							"key": "max",
							"value": "5"
						}
					]
				}
			},
			"response": []
		},
		{
			"name": "User--deleteSession",
			"request": {
				"method": "DELETE",
				"header": [
					{
						"key": "x-token",
						"value": "{{x-token}}",
						"type": "text"
					},
					{
						"key": "x-deviceid",
						"value": "{{x-deviceid}}",
						"type": "text"
					}
				],
				"body": {
					"mode": "urlencoded",
					"urlencoded": []
				},
				"url": {
					"raw": "http://ssoapi/api/user/session/12f31c932123947afea604f5712b5f75",
					"protocol": "http",
					"host": [
						"ssoapi"
					],
					"path": [
						"api",
						"user",
						"session",
						"12f31c932123947afea604f5712b5f75"
					]
				}
			},
			"response": []
		},
		{
			"name": "Log--search",
			"protocolProfileBehavior": {
				"disableBodyPruning": true
			},
			"request": {
				"method": "GET",
				"header": [
					{
						"key": "x-token",
						"value": "{{x-token}}",
						"type": "text"
					},
					{
						"key": "x-deviceid",
						"value": "{{x-deviceid}}",
						"type": "text"
					}
				],
				"body": {
					"mode": "urlencoded",
					"urlencoded": []
				},
				"url": {
					"raw": "http://ssoapi/api/log?_keyword=LOGIN&_page=1&_pageSize=10&startTime=2021-12-01 00:00:00",
					"protocol": "http",
					"host": [
						"ssoapi"
					],
					"path": [
						"api",
						"log"
					],
					"query": [
						{
							"key": "_keyword",
							"value": "LOGIN"
						},
						{
							"key": "_page",
							"value": "1"
						},
						{
							"key": "_pageSize",
							"value": "10"
						},
						{
							"key": "startTime",
							"value": "2021-12-01 00:00:00"
						},
						{
							"key": "endTime",
							"value": null,
							"disabled": true
						}
					]
				}
			},
			"response": []
		},
		{
			"name": "Log--statLogin",
			"protocolProfileBehavior": {
				"disableBodyPruning": true
			},
			"request": {
				"method": "GET",
				"header": [
					{
						"key": "x-token",
						"value": "{{x-token}}",
						"type": "text"
					},
					{
						"key": "x-deviceid",
						"value": "{{x-deviceid}}",
						"type": "text"
					}
				],
				"body": {
					"mode": "urlencoded",
					"urlencoded": []
				},
				"url": {
					"raw": "http://ssoapi/api/log/stat/login?period=Last3Month",
					"protocol": "http",
					"host": [
						"ssoapi"
					],
					"path": [
						"api",
						"log",
						"stat",
						"login"
					],
					"query": [
						{
							"key": "period",
							"value": "Last3Month"
						}
					]
				}
			},
			"response": []
		},
		{
			"name": "Log--statException",
			"protocolProfileBehavior": {
				"disableBodyPruning": true
			},
			"request": {
				"method": "GET",
				"header": [
					{
						"key": "x-token",
						"value": "{{x-token}}",
						"type": "text"
					},
					{
						"key": "x-deviceid",
						"value": "{{x-deviceid}}",
						"type": "text"
					}
				],
				"body": {
					"mode": "urlencoded",
					"urlencoded": []
				},
				"url": {
					"raw": "http://ssoapi/api/log/stat/exception?period=LastMonth",
					"protocol": "http",
					"host": [
						"ssoapi"
					],
					"path": [
						"api",
						"log",
						"stat",
						"exception"
					],
					"query": [
						{
							"key": "period",
							"value": "LastMonth"
						}
					]
				}
			},
			"response": []
		},
		{
			"name": "Sync--Log",
			"request": {
				"method": "POST",
				"header": [
					{
						"key": "x-token",
						"value": "{{x-token}}",
						"type": "text"
					},
					{
						"key": "x-deviceid",
						"value": "{{x-deviceid}}",
						"type": "text"
					},
					{
						"key": "Content-Type",
						"value": "application/json",
						"type": "text"
					}
				],
				"body": {
					"mode": "raw",
					"raw": "{\r\n\r\n}",
					"options": {
						"raw": {
							"language": "json"
						}
					}
				},
				"url": {
					"raw": "{{ApiHost}}/sync/log",
					"host": [
						"{{ApiHost}}"
					],
					"path": [
						"sync",
						"log"
					]
				}
			},
			"response": []
		},
		{
			"name": "Sync--Tenant",
			"request": {
				"method": "POST",
				"header": [
					{
						"key": "x-token",
						"value": "{{x-token}}",
						"type": "text"
					},
					{
						"key": "x-deviceid",
						"value": "{{x-deviceid}}",
						"type": "text"
					},
					{
						"key": "Content-Type",
						"value": "application/json",
						"type": "text"
					}
				],
				"body": {
					"mode": "raw",
					"raw": "{\r\n\r\n}",
					"options": {
						"raw": {
							"language": "json"
						}
					}
				},
				"url": {
					"raw": "{{ApiHost}}/sync/tenant",
					"host": [
						"{{ApiHost}}"
					],
					"path": [
						"sync",
						"tenant"
					]
				}
			},
			"response": []
		},
		{
			"name": "Sync--Role",
			"request": {
				"method": "POST",
				"header": [
					{
						"key": "x-token",
						"value": "{{x-token}}",
						"type": "text"
					},
					{
						"key": "x-deviceid",
						"value": "{{x-deviceid}}",
						"type": "text"
					},
					{
						"key": "Content-Type",
						"value": "application/json",
						"type": "text"
					}
				],
				"body": {
					"mode": "raw",
					"raw": "{\r\n\r\n}",
					"options": {
						"raw": {
							"language": "json"
						}
					}
				},
				"url": {
					"raw": "{{ApiHost}}/sync/role",
					"host": [
						"{{ApiHost}}"
					],
					"path": [
						"sync",
						"role"
					]
				}
			},
			"response": []
		},
		{
			"name": "Sync--UserRole",
			"request": {
				"method": "POST",
				"header": [
					{
						"key": "x-token",
						"value": "{{x-token}}",
						"type": "text"
					},
					{
						"key": "x-deviceid",
						"value": "{{x-deviceid}}",
						"type": "text"
					},
					{
						"key": "Content-Type",
						"value": "application/json",
						"type": "text"
					}
				],
				"body": {
					"mode": "raw",
					"raw": "{\r\n\r\n}",
					"options": {
						"raw": {
							"language": "json"
						}
					}
				},
				"url": {
					"raw": "{{ApiHost}}/sync/user/role",
					"host": [
						"{{ApiHost}}"
					],
					"path": [
						"sync",
						"user",
						"role"
					]
				}
			},
			"response": []
		},
		{
			"name": "Sync--UserDevice",
			"request": {
				"method": "POST",
				"header": [
					{
						"key": "x-token",
						"value": "{{x-token}}",
						"type": "text"
					},
					{
						"key": "x-deviceid",
						"value": "{{x-deviceid}}",
						"type": "text"
					},
					{
						"key": "Content-Type",
						"value": "application/json",
						"type": "text"
					}
				],
				"body": {
					"mode": "raw",
					"raw": "{\r\n\r\n}",
					"options": {
						"raw": {
							"language": "json"
						}
					}
				},
				"url": {
					"raw": "{{ApiHost}}/sync/user/device",
					"host": [
						"{{ApiHost}}"
					],
					"path": [
						"sync",
						"user",
						"device"
					]
				}
			},
			"response": []
		},
		{
			"name": "Sync--UserIP",
			"request": {
				"method": "POST",
				"header": [
					{
						"key": "x-token",
						"value": "{{x-token}}",
						"type": "text"
					},
					{
						"key": "x-deviceid",
						"value": "{{x-deviceid}}",
						"type": "text"
					},
					{
						"key": "Content-Type",
						"value": "application/json",
						"type": "text"
					}
				],
				"body": {
					"mode": "raw",
					"raw": "{\r\n\r\n}",
					"options": {
						"raw": {
							"language": "json"
						}
					}
				},
				"url": {
					"raw": "{{ApiHost}}/sync/index",
					"host": [
						"{{ApiHost}}"
					],
					"path": [
						"sync",
						"index"
					]
				}
			},
			"response": []
		},
		{
			"name": "Sync--ALL",
			"request": {
				"method": "POST",
				"header": [
					{
						"key": "x-token",
						"value": "{{x-token}}",
						"type": "text"
					},
					{
						"key": "x-deviceid",
						"value": "{{x-deviceid}}",
						"type": "text"
					},
					{
						"key": "Content-Type",
						"value": "application/json",
						"type": "text"
					}
				],
				"body": {
					"mode": "raw",
					"raw": "{\r\n\r\n}",
					"options": {
						"raw": {
							"language": "json"
						}
					}
				},
				"url": {
					"raw": "{{ApiHost}}/sync/user/ip",
					"host": [
						"{{ApiHost}}"
					],
					"path": [
						"sync",
						"user",
						"ip"
					]
				}
			},
			"response": []
		}
	],
	"auth": {
		"type": "bearer",
		"bearer": [
			{
				"key": "token",
				"value": "eyJhbGciOiJSUzI1NiIsInR5cCIgOiAiSldUIiwia2lkIiA6ICJGa0Y2R25Pdm5wc0cwZ2J4cGhxYXhRV0loZUtCQkt5TjcxV3ljbGFsN1BJIn0.eyJleHAiOjE2MzkwMTA3MjMsImlhdCI6MTYzODk3NDcyMywianRpIjoiZDY2M2Q2NjMtNGY5Mi00ODlmLTg5YmYtMDRkOGNkODUwNzBiIiwiaXNzIjoiaHR0cDovL2tleWNsb2FrLmZvcm5ld3RlY2guY29tL2F1dGgvcmVhbG1zL3Nzb3Rlc3QiLCJhdWQiOiJhY2NvdW50Iiwic3ViIjoiYjcwNTBmMTYtZmNmYy00ZDYyLWFmNjgtMDdkYmE2YzJjODczIiwidHlwIjoiQmVhcmVyIiwiYXpwIjoic3NvIiwic2Vzc2lvbl9zdGF0ZSI6Ijk3YjJlYzQ1LWJiOTMtNGY3YS05NWY2LWFmMzM1NzgzYzBhOCIsImFjciI6IjEiLCJyZWFsbV9hY2Nlc3MiOnsicm9sZXMiOlsib2ZmbGluZV9hY2Nlc3MiLCJ1bWFfYXV0aG9yaXphdGlvbiIsImRlZmF1bHQtcm9sZXMtc3NvdGVzdCJdfSwicmVzb3VyY2VfYWNjZXNzIjp7InNzbyI6eyJyb2xlcyI6WyJhcHByb3ZlciIsImF1ZGl0b3IiLCJzdXBlcmFkbWluIiwiYWRtaW4iXX0sImFjY291bnQiOnsicm9sZXMiOlsibWFuYWdlLWFjY291bnQiLCJtYW5hZ2UtYWNjb3VudC1saW5rcyIsInZpZXctcHJvZmlsZSJdfX0sInNjb3BlIjoicHJvZmlsZSBlbWFpbCIsInNpZCI6Ijk3YjJlYzQ1LWJiOTMtNGY3YS05NWY2LWFmMzM1NzgzYzBhOCIsImVtYWlsX3ZlcmlmaWVkIjpmYWxzZSwibmFtZSI6ImphY2t5IG1hIiwicHJlZmVycmVkX3VzZXJuYW1lIjoic3VwZXJhZG1pbiIsImdpdmVuX25hbWUiOiJqYWNreSIsImZhbWlseV9uYW1lIjoibWEiLCJlbWFpbCI6ImphY2t5QHFxLmNvbSJ9.PcSbWaaPBQ1xZ85iHnPZ6mexzy9mtJrTVSq82lDbpdB8R3r5A_pnpOeDWRIJCexKeLbhNUICPmL9EYKci_AM-dLIase2qJfeAUVtpzp2EW4CswkkWLa_DurGRr6QiGytyE8pzgOJzQj1-SSNkbnWrJEMCFEiANeJ--P4-Eyqf2J7qMJSbTkiicSsFKusBNUPi_kSOZ8XhYXTLVMFPcg0FpCo2p_lnqMwjQegFTQRtpw2zWdXf77TrSBlCSprBclC7weH3bzO21xYW6BbWFlWXYWTNr1QQjxzIXXa4w8w8bisYdBlViNa9ETEm-ihnB4NIUJsoCRCrma3qgIHD14hqQ",
				"type": "string"
			}
		]
	},
	"event": [
		{
			"listen": "prerequest",
			"script": {
				"type": "text/javascript",
				"exec": [
					""
				]
			}
		},
		{
			"listen": "test",
			"script": {
				"type": "text/javascript",
				"exec": [
					""
				]
			}
		}
	],
	"variable": [
		{
			"key": "x-token",
			"value": "71AF80F1-9D13-3B52-9DD4-C54557D99B15"
		},
		{
			"key": "x-deviceid",
			"value": "9D13-3B52-9DD4"
		},
		{
			"key": "ApiHost",
			"value": "https://ssoapi.fornewtech.com/api"
		}
	]
}