{
  "id": "2867303",
  "name": "xin_jia_po_pc",
  "font_family": "iconfont",
  "css_prefix_text": "icon-",
  "description": "",
  "glyphs": [
    {
      "icon_id": "10156324",
      "name": "消息",
      "font_class": "xiaoxi",
      "unicode": "e633",
      "unicode_decimal": 58931
    },
    {
      "icon_id": "20300542",
      "name": "添加用户",
      "font_class": "tianjiayonghu",
      "unicode": "e624",
      "unicode_decimal": 58916
    },
    {
      "icon_id": "383745",
      "name": "ip",
      "font_class": "ip",
      "unicode": "e64f",
      "unicode_decimal": 58959
    },
    {
      "icon_id": "722471",
      "name": "用户",
      "font_class": "yonghu",
      "unicode": "e61b",
      "unicode_decimal": 58907
    },
    {
      "icon_id": "1766267",
      "name": "指向-bottom",
      "font_class": "bottom",
      "unicode": "e674",
      "unicode_decimal": 58996
    },
    {
      "icon_id": "1766268",
      "name": "指向-left",
      "font_class": "left",
      "unicode": "e675",
      "unicode_decimal": 58997
    },
    {
      "icon_id": "1766272",
      "name": "指向-right",
      "font_class": "right",
      "unicode": "e677",
      "unicode_decimal": 58999
    },
    {
      "icon_id": "1766481",
      "name": "符号-分组",
      "font_class": "fenzu",
      "unicode": "e694",
      "unicode_decimal": 59028
    },
    {
      "icon_id": "7791981",
      "name": "设备",
      "font_class": "ziyuanxhdpi",
      "unicode": "e64c",
      "unicode_decimal": 58956
    },
    {
      "icon_id": "15625220",
      "name": "搜索",
      "font_class": "sousuo",
      "unicode": "e692",
      "unicode_decimal": 59026
    },
    {
      "icon_id": "15630153",
      "name": "全部任务",
      "font_class": "quanburenwu",
      "unicode": "e6a7",
      "unicode_decimal": 59047
    }
  ]
}
